%YAML 1.1
%TAG !u! tag:unity3d.com,2011:
--- !u!114 &11400000
MonoBehaviour:
  m_ObjectHideFlags: 0
  m_CorrespondingSourceObject: {fileID: 0}
  m_PrefabInstance: {fileID: 0}
  m_PrefabAsset: {fileID: 0}
  m_GameObject: {fileID: 0}
  m_Enabled: 1
  m_EditorHideFlags: 0
  m_Script: {fileID: 11500000, guid: 43d5ae59cc1eefa4e98186cdede382f7, type: 3}
  m_Name: ThirdColor
  m_EditorClassIdentifier: 
  neededMaterial: {fileID: 2100000, guid: 4eb3f18354194a542a18c2a85d1f6b56, type: 2}
  colorToChange: {r: 0, g: 1, b: 0.07796383, a: 0}
